INDEX VERSION 1.131+/home/starlley/Documents/Work/microservice-course/.metadata/.plugins/org.eclipse.jdt.core
3115025830.index
1114955017.index
818872156.index
2128603532.index
1629057170.index
3343224764.index
2824028237.index
1183629556.index
3562992918.index
3266445677.index
1423273398.index
3045849883.index
2459755863.index
1541983657.index
1737708330.index
1739210475.index
1440640051.index
4292807642.index
1237036042.index
4010710365.index
4164276833.index
3782120999.index
2651722362.index
2953461995.index
2618879525.index
2504173790.index
1701785893.index
4065165834.index
3857963671.index
686850410.index
2697359349.index
439499087.index
1967605689.index
3432032448.index
445439426.index
1093228359.index
522695438.index
3596992187.index
4185934469.index
88890834.index
375604187.index
1781102936.index
3020810431.index
3902825050.index
618223308.index
3452952166.index
186668305.index
3066064509.index
767531358.index
624260351.index
1171351286.index
4273109016.index
3746337537.index
1081911868.index
2047289918.index
3421355380.index
553230815.index
184967274.index
953945732.index
1823022603.index
2343009453.index
3580986470.index
1278476620.index
3564857393.index
3068418035.index
4103015452.index
2492035300.index
2116607706.index
3353197491.index
3140514052.index
3032107619.index
2497154062.index
1482372045.index
1420520505.index
3882258226.index
66540152.index
1810625382.index
3200099282.index
1660118482.index
3142792612.index
1246026034.index
58383804.index
2523359955.index
2521691150.index
3576001931.index
1711818085.index
468532319.index
315298541.index
3512057804.index
3582775434.index
3720064419.index
4087047086.index
887984894.index
1901689501.index
3670221088.index
3990317202.index
3396412534.index
3163399841.index
3427855274.index
3884998195.index
2644172310.index
2151962732.index
1914289159.index
4035094322.index
1032494791.index
3010642300.index
860881535.index
879872103.index
2045323304.index
1678835156.index
1041546331.index
3819563498.index
565117812.index
1086341010.index
441958647.index
115321118.index
2900953200.index
4040556794.index
2330873880.index
873330825.index
1615119543.index
2296370793.index
1710863495.index
433303378.index
3604375463.index
2581429712.index
194410427.index
3563820767.index
1510805035.index
801567290.index
2255175965.index
3792975913.index
2025122167.index
3511287468.index
2843886298.index
3784791676.index
2560508079.index
3215571579.index
1530718006.index
2407270755.index
4275362315.index
4152756071.index
2943786538.index
2377241724.index
1840284756.index
2880485197.index
2044476670.index
3477697729.index
1322183465.index
2047769136.index
1894014132.index
1778594312.index
438657741.index
3145438945.index
3881287504.index
3557191957.index
3926785618.index
52956627.index
3827831920.index
3098998862.index
4122791350.index
3497375768.index
4243191228.index
2612650608.index
1949577501.index
2932896841.index
3795706851.index
1638395923.index
3021051835.index
3746127711.index
3325386809.index
685043234.index
159926972.index
3688649865.index
513055210.index
2956009554.index
893351333.index
791545152.index
971443685.index
888699106.index
757756831.index
1737956741.index
450850793.index
1091477641.index
3916309643.index
1938885066.index
1315441917.index
1186390984.index
2760004544.index
1206201849.index
898905510.index
780373946.index
2571187878.index
477876878.index
4133307388.index
2156046295.index
3070113831.index
643322556.index
1612110641.index
250260848.index
2133101108.index
3631891983.index
2520967277.index
1154766652.index
2476027804.index
1511502006.index
3141496979.index
552574782.index
3913133798.index
